…
all the features have more than 50% of missing values.^

``` r
data$Competitors<-NULL
data$Easy.Apply<-NULL
data%>%select(Job.Title)%>%group_by(Job.Title)%>%summarise(total=n())%>%arrange(desc(total))%>%top_n(20)
```

    ## `summarise()` ungrouping output (override with `.groups` argument)

    ## Selecting by total

    ## # A tibble: 21 x 2
    ##    Job.Title               total
    ##    <chr>                   <int>
    ##  1 ""                       5482
    ##  2 "data analyst"            335
    ##  3 "senior data analyst"      78
    ##  4 " color"                   42
    ##  5 "junior data analyst"      28
    ##  6 " analyze"                 27
    ##  7 "business data analyst"    23
    ##  8 " tx"                      22
    ##  9 " tx,dallas"               19
    ## 10 "sr. data analyst"         17
    ## # ... with 11 more rows
…
data1$col2<-substr(data1$col2,2,6)
data1$col2<-gsub("K","",data1$col2)
data1$col2<-as.numeric(data1$col2)
names(data1)[3]<-"max"

avg<-function(x,y){
  (x+y)/2
}

data1$mean<-avg(data1$min,data1$max)

data%>%select(salary)%>%group_by(salary)%>%summarise(total=n())%>%arrange(desc(total))
```

    ## # A tibble: 86 x 2
    ##    salary      total
    ##    <chr>       <int>
    ##  1 ""           8915
    ##  2 "$41K-$78K"    57
    ##  3 "$42K-$76K"    57
    ##  4 "$50K-$86K"    41
    ##  5 "$35K-$67K"    33
    ##  6 "$43K-$76K"    31
    ##  7 "$58K-$93K"    31
    ##  8 "$27K-$52K"    30
    ##  9 "$35K-$42K"    30
    ## 10 "$37K-$66K"    30
    ## # ... with 76 more rows
…
Since the p value is greater than 0.05 we cannot reject our null
hypothesis, therefore there is no relation.

Top 10 comapnies with the most data analytical roles listed:

``` r
data2%>%select(Company.Name,Rating)%>%group_by(Company.Name,Rating)%>%summarise(total=n())%>%arrange(desc(total))
```

    ## `summarise()` regrouping output by 'Company.Name' (override with `.groups` argument)

    ## # A tibble: 1,304 x 3
    ## # Groups:   Company.Name [1,304]
    ##    Company.Name                            Rating total
    ##    <chr>                                    <dbl> <int>
    ##  1 "Staffigo Technical Services, LLC\n5.0"    5      50
    ##  2 "Diverse Lynx\n3.9"                        3.9    18
    ##  3 "Lorven Technologies Inc\n4.0"             4      14
    ##  4 "Robert Half\n3.5"                         3.5    13
    ##  5 "Avacend, Inc.\n2.5"                       2.5    12
    ##  6 "Kforce\n4.1"                              4.1    12
    ##  7 "Mondo\n3.9"                               3.9    10
    ##  8 "Reliable Software Resources\n4.0"         4       9
    ##  9 "Apex Systems\n3.8"                        3.8     7
    ## 10 "eTeam Inc.\n3.7"                          3.7     7
    ## # ... with 1,294 more rows
…
Companies with the most employees:

``` r
employ<-subset(data2,Size=="10000+ employees")
employ%>%select(Company.Name,Rating)%>%group_by(Company.Name,Rating)%>%arrange(desc(Rating))
```

    ## # A tibble: 301 x 2
    ## # Groups:   Company.Name, Rating [162]
    ##    Company.Name                      Rating
    ##    <chr>                              <dbl>
    ##  1 "NVIDIA\n4.6"                        4.6
    ##  2 "Fortinet\n4.5"                      4.5
    ##  3 "Facebook\n4.5"                      4.5
    ##  4 "Google\n4.4"                        4.4
    ##  5 "Google\n4.4"                        4.4
    ##  6 "HCL Global Systems\n4.3"            4.3
    ##  7 "University of Florida\n4.3"         4.3
    ##  8 "University of Pennsylvania\n4.3"    4.3
    ##  9 "University of Pennsylvania\n4.3"    4.3
    ## 10 "University of Pennsylvania\n4.3"    4.3
    ## # ... with 291 more rows
…
we can we that the IT leads the job market for data analyst roles
followed by business services and finance.

``` r
data3%>%select(Sector)%>%group_by(Sector)%>%summarise(total=n())%>%arrange(desc(total))
```

    ## `summarise()` ungrouping output (override with `.groups` argument)

    ## # A tibble: 23 x 2
    ##    Sector                    total
    ##    <chr>                     <int>
    ##  1 Information Technology      397
    ##  2 Business Services           347
    ##  3 Finance                     138
    ##  4 Health Care                 119
    ##  5 Insurance                    42
    ##  6 Education                    37
    ##  7 Media                        33
    ##  8 Retail                       28
    ##  9 Biotech & Pharmaceuticals    26
    ## 10 Manufacturing                24
    ## # ... with 13 more rows
…
